Analysis results in a consistent data structure
…
Simulations

First, we use expand.grid to create a data frame with all possible combination of parameters we compare.

results <- expand.grid(
  M        = c(30, 3000), 
  dist     = c("gaussian", "laplace"), 
  num.simu = 1:10,
  stringsAsFactors = FALSE
) %>% 
  as_tibble() %>%
  print()

## # A tibble: 40 x 3
##        M     dist num.simu
##    <dbl>    <chr>    <int>
##  1    30 gaussian        1
##  2  3000 gaussian        1
##  3    30  laplace        1
##  4  3000  laplace        1
##  5    30 gaussian        2
##  6  3000 gaussian        2
##  7    30  laplace        2
##  8  3000  laplace        2
##  9    30 gaussian        3
## 10  3000 gaussian        3
## # ... with 30 more rows
…
  bind_rows(
    logit(X, y, ind.train, ind.test),
    svm(X, y, ind.train, ind.test),
    xgb(X, y, ind.train, ind.test)
  ) 
})

## ........................................

results

## # A tibble: 40 x 4
##        M     dist num.simu              res
##    <dbl>    <chr>    <int>           <list>
##  1    30 gaussian        1 <tibble [3 x 4]>
##  2  3000 gaussian        1 <tibble [3 x 4]>
##  3    30  laplace        1 <tibble [3 x 4]>
##  4  3000  laplace        1 <tibble [3 x 4]>
##  5    30 gaussian        2 <tibble [3 x 4]>
##  6  3000 gaussian        2 <tibble [3 x 4]>
##  7    30  laplace        2 <tibble [3 x 4]>
##  8  3000  laplace        2 <tibble [3 x 4]>
##  9    30 gaussian        3 <tibble [3 x 4]>
## 10  3000 gaussian        3 <tibble [3 x 4]>
## # ... with 30 more rows

Results

First, we use function unnest of package tidyr so that we have a tidier data frame. To learn more about tidy data, please refer to this vignette and this book chapter.

(results <- unnest(results, res))

## # A tibble: 120 x 7
##        M     dist num.simu method            eval timing nb.preds
##    <dbl>    <chr>    <int>  <chr>          <list>  <dbl>    <int>
##  1    30 gaussian        1  logit <dbl [592 x 2]> 20.200       19
##  2    30 gaussian        1    svm <dbl [592 x 2]>  2.017     1035
##  3    30 gaussian        1    xgb <dbl [592 x 2]>  1.771       67
##  4  3000 gaussian        1  logit <dbl [592 x 2]> 18.580       10
##  5  3000 gaussian        1    svm <dbl [592 x 2]>  1.707     1187
##  6  3000 gaussian        1    xgb <dbl [592 x 2]>  1.626       68
##  7    30  laplace        1  logit <dbl [592 x 2]> 15.834        9
##  8    30  laplace        1    svm <dbl [592 x 2]>  1.649     1091
##  9    30  laplace        1    xgb <dbl [592 x 2]>  1.322       64
## 10  3000  laplace        1  logit <dbl [592 x 2]> 16.811        3
## # ... with 110 more rows

To compute the AUC (a measure of prediction accuracy), we use purrr again and specify the type of the output we want (_dbl for doubles). Here, we could use function mutate of package dplyr instead of standard accessor [[.

results[["AUC"]] <- map_dbl(results[["eval"]], ~bigstatsr::AUC(.x[, 1], .x[, 2]))
results

## # A tibble: 120 x 8
##        M     dist num.simu method            eval timing nb.preds       AUC
##    <dbl>    <chr>    <int>  <chr>          <list>  <dbl>    <int>     <dbl>
##  1    30 gaussian        1  logit <dbl [592 x 2]> 20.200       19 0.8563973
##  2    30 gaussian        1    svm <dbl [592 x 2]>  2.017     1035 0.6828651
##  3    30 gaussian        1    xgb <dbl [592 x 2]>  1.771       67 0.6250210
##  4  3000 gaussian        1  logit <dbl [592 x 2]> 18.580       10 0.7140415
##  5  3000 gaussian        1    svm <dbl [592 x 2]>  1.707     1187 0.6539634
##  6  3000 gaussian        1    xgb <dbl [592 x 2]>  1.626       68 0.5577844
##  7    30  laplace        1  logit <dbl [592 x 2]> 15.834        9 0.8441696
##  8    30  laplace        1    svm <dbl [592 x 2]>  1.649     1091 0.7119032
##  9    30  laplace        1    xgb <dbl [592 x 2]>  1.322       64 0.7027520
## 10  3000  laplace        1  logit <dbl [592 x 2]> 16.811        3 0.5090266
## # ... with 110 more rows
…
