Analysis of results in a consistent data structure
…
Simulations

First, we use expand.grid to create a data frame with all possible combination of parameters we compare.

results <- expand.grid(
  M        = c(30, 3000), 
  dist     = c("gaussian", "laplace"), 
  num.simu = 1:10,
  stringsAsFactors = FALSE
) %>% 
  as_tibble() %>%
  print()

## # A tibble: 40 x 3
##        M     dist num.simu
##    <dbl>    <chr>    <int>
##  1    30 gaussian        1
##  2  3000 gaussian        1
##  3    30  laplace        1
##  4  3000  laplace        1
##  5    30 gaussian        2
##  6  3000 gaussian        2
##  7    30  laplace        2
##  8  3000  laplace        2
##  9    30 gaussian        3
## 10  3000 gaussian        3
## # ... with 30 more rows
…
  bind_rows(
    logit(X, y, ind.train, ind.test),
    svm(X, y, ind.train, ind.test),
    xgb(X, y, ind.train, ind.test)
  ) 
})

## ........................................

results

## # A tibble: 40 x 4
##        M     dist num.simu              res
##    <dbl>    <chr>    <int>           <list>
##  1    30 gaussian        1 <tibble [3 x 4]>
##  2  3000 gaussian        1 <tibble [3 x 4]>
##  3    30  laplace        1 <tibble [3 x 4]>
##  4  3000  laplace        1 <tibble [3 x 4]>
##  5    30 gaussian        2 <tibble [3 x 4]>
##  6  3000 gaussian        2 <tibble [3 x 4]>
##  7    30  laplace        2 <tibble [3 x 4]>
##  8  3000  laplace        2 <tibble [3 x 4]>
##  9    30 gaussian        3 <tibble [3 x 4]>
## 10  3000 gaussian        3 <tibble [3 x 4]>
## # ... with 30 more rows

Results

First, we use function unnest of package tidyr so that we have a tidier data frame. To learn more about tidy data, please refer to this vignette and this book chapter.

(results <- unnest(results, res))

## # A tibble: 120 x 7
##        M     dist num.simu method            eval timing nb.preds
##    <dbl>    <chr>    <int>  <chr>          <list>  <dbl>    <int>
##  1    30 gaussian        1  logit <dbl [592 x 2]> 16.137        7
##  2    30 gaussian        1    svm <dbl [592 x 2]>  1.777     1020
##  3    30 gaussian        1    xgb <dbl [592 x 2]>  1.304       66
##  4  3000 gaussian        1  logit <dbl [592 x 2]> 17.426        3
##  5  3000 gaussian        1    svm <dbl [592 x 2]>  1.618     1117
##  6  3000 gaussian        1    xgb <dbl [592 x 2]>  1.375       68
##  7    30  laplace        1  logit <dbl [592 x 2]> 16.198       11
##  8    30  laplace        1    svm <dbl [592 x 2]>  2.021     1097
##  9    30  laplace        1    xgb <dbl [592 x 2]>  1.284       63
## 10  3000  laplace        1  logit <dbl [592 x 2]> 16.960        2
## # ... with 110 more rows

To compute the AUC (a measure of prediction accuracy), we use purrr again and specify the type of the output we want (_dbl for doubles). Here, we could use function mutate of package dplyr instead of standard accessor [[.

results[["AUC"]] <- map_dbl(results[["eval"]], ~bigstatsr::AUC(.x[, 1], .x[, 2]))
results

## # A tibble: 120 x 8
##        M     dist num.simu method            eval timing nb.preds       AUC
##    <dbl>    <chr>    <int>  <chr>          <list>  <dbl>    <int>     <dbl>
##  1    30 gaussian        1  logit <dbl [592 x 2]> 16.137        7 0.8354653
##  2    30 gaussian        1    svm <dbl [592 x 2]>  1.777     1020 0.6900392
##  3    30 gaussian        1    xgb <dbl [592 x 2]>  1.304       66 0.6477170
##  4  3000 gaussian        1  logit <dbl [592 x 2]> 17.426        3 0.6374238
##  5  3000 gaussian        1    svm <dbl [592 x 2]>  1.618     1117 0.6134841
##  6  3000 gaussian        1    xgb <dbl [592 x 2]>  1.375       68 0.5716341
##  7    30  laplace        1  logit <dbl [592 x 2]> 16.198       11 0.7985502
##  8    30  laplace        1    svm <dbl [592 x 2]>  2.021     1097 0.6766651
##  9    30  laplace        1    xgb <dbl [592 x 2]>  1.284       63 0.6691791
## 10  3000  laplace        1  logit <dbl [592 x 2]> 16.960        2 0.6055786
## # ... with 110 more rows
…
